[
  {
    "database": "postgres",
    "index": "artists",
    "nodes": {
      "table": "artists",
      "schema": "public",
      "columns": [],
      "transform": {
        "mapping": {
          "id": {
            "type": "keyword"
          },
          "title": {
            "type": "keyword"
          },
          "members": {
            "type": "nested",
            "properties": {
              "guitarists": {
                "type": "keyword"
              },
              "drummers": {
                "type": "keyword"
              },
              "bassists": {
                "type": "keyword"
              },
              "singers": {
                "type": "keyword"
              }
            }
          },
          "founded": {
            "type": "long"
          },
          "break_up": {
            "type": "long"
          },
          "sells": {
            "type": "long"
          },
          "country": {
            "type": "keyword"
          },
          "discography": {
            "type": "nested",
            "properties": {
              "year": {
                "type": "long"
              },
              "title": {
                "type": "keyword"
              }
            }
          }
        }
      },
      "children": [
        {
          "table": "songs",
          "schema": "public",
          "columns": [],
          "transform": {
            "mapping": {
              "id": {
                "type": "keyword"
              },
              "title": {
                "type": "keyword"
              },
              "duration": {
                "type": "long"
              },
              "song_text": {
                "type": "keyword"
              },
              "hit": {
                "type": "boolean"
              }
            }
          },
          "relationship": {
            "variant": "object",
            "type": "one_to_many"
          }
        },
        {
          "table": "labels_to_artists",
          "schema": "public",
          "columns": [],
          "transform": {
            "mapping": {
              "label_id": {
                "type": "keyword"
              },
              "artist_id": {
                "type": "keyword"
              }
            }
          },
          "children": [
            {
              "table": "labels",
              "schema": "public",
              "columns": [],
              "transform": {
                "mapping": {
                  "id": {
                    "type": "keyword"
                  },
                  "title": {
                    "type": "keyword"
                  },
                  "founded": {
                    "type": "long"
                  },
                  "country": {
                    "type": "keyword"
                  },
                  "company": {
                    "type": "keyword"
                  }
                }
              },
              "relationship": {
                "variant": "object",
                "type": "one_to_many"
              }
            }
          ],
          "label": "labels",
          "relationship": {
            "variant": "object",
            "type": "one_to_many"
          }
        }
      ]
    }
  },
  {
    "database": "postgres",
    "index": "songs",
    "setting": {
      "analysis": {
        "filter": {
          "my_ngram_filter": {
            "type": "ngram"
          }
        },
        "analyzer": {
          "my_ngram_analyzer": {
            "type": "custom",
            "tokenizer": "standard",
            "filter": [
              "lowercase",
              "my_ngram_filter"
            ]
          }
        }
      }
    },
    "nodes": {
      "table": "songs",
      "schema": "public",
      "columns": [],
      "transform": {
        "mapping": {
          "id": {
            "type": "keyword"
          },
          "title": {
            "type": "text",
            "analyzer": "my_ngram_analyzer"
          },
          "duration": {
            "type": "long"
          },
          "song_text": {
            "type": "keyword"
          },
          "hit": {
            "type": "boolean"
          }
        }
      },
      "children": [
        {
          "table": "artists",
          "schema": "public",
          "columns": [],
          "transform": {
            "mapping": {
              "id": {
                "type": "keyword"
              },
              "title": {
                "type": "keyword"
              },
              "members": {
                "type": "nested",
                "properties": {
                  "guitarists": {
                    "type": "keyword"
                  },
                  "drummers": {
                    "type": "keyword"
                  },
                  "bassists": {
                    "type": "keyword"
                  },
                  "singers": {
                    "type": "keyword"
                  }
                }
              },
              "founded": {
                "type": "long"
              },
              "break_up": {
                "type": "long"
              },
              "sells": {
                "type": "long"
              },
              "country": {
                "type": "keyword"
              },
              "discography": {
                "type": "nested",
                "properties": {
                  "year": {
                    "type": "long"
                  },
                  "title": {
                    "type": "keyword"
                  }
                }
              }
            }
          },
          "relationship": {
            "variant": "object",
            "type": "one_to_many"
          }
        }
      ]
    }
  },
  {
    "database": "postgres",
    "index": "labels",
    "nodes": {
      "table": "labels",
      "schema": "public",
      "columns": [
      ],
      "transform": {
        "mapping": {
          "id": {
            "type": "keyword"
          },
          "title": {
            "type": "keyword"
          },
          "founded": {
            "type": "long"
          },
          "country": {
            "type": "keyword"
          },
          "company": {
            "type": "keyword"
          }
        }
      },
      "children": [
        {
          "table": "labels_to_artists",
          "schema": "public",
          "columns": [],
          "transform": {
            "mapping": {
              "label_id": {
                "type": "keyword"
              },
              "artist_id": {
                "type": "keyword"
              }
            }
          },
          "children": [
            {
              "table": "artists",
              "schema": "public",
              "columns": [],
              "transform": {
                "mapping": {
                  "id": {
                    "type": "keyword"
                  },
                  "title": {
                    "type": "keyword"
                  },
                  "members": {
                    "type": "nested",
                    "properties": {
                      "guitarists": {
                        "type": "keyword"
                      },
                      "drummers": {
                        "type": "keyword"
                      },
                      "bassists": {
                        "type": "keyword"
                      },
                      "singers": {
                        "type": "keyword"
                      }
                    }
                  },
                  "founded": {
                    "type": "long"
                  },
                  "break_up": {
                    "type": "long"
                  },
                  "sells": {
                    "type": "long"
                  },
                  "country": {
                    "type": "keyword"
                  },
                  "discography": {
                    "type": "nested",
                    "properties": {
                      "year": {
                        "type": "long"
                      },
                      "title": {
                        "type": "keyword"
                      }
                    }
                  }
                }
              },
              "relationship": {
                "variant": "object",
                "type": "one_to_many"
              }
            }
          ],
          "label": "artists",
          "relationship": {
            "variant": "object",
            "type": "one_to_many"
          }
        }
      ]
    }
  }
]

